\relax 
\@writefile{toc}{\contentsline {section}{\numberline {1}Model }{1}}
\newlabel{eq1}{{2}{1}}
\newlabel{eq1}{{3}{2}}
\newlabel{eq1}{{4}{2}}
\@writefile{toc}{\contentsline {subsection}{\numberline {1.1}Basic Profile for User $u$}{2}}
\newlabel{eq1}{{1.1}{2}}
\@writefile{toc}{\contentsline {subsection}{\numberline {1.2}Serendipitous Profile for user $u$}{2}}
\citation{ref1}
\newlabel{eq1}{{1.2}{3}}
\@writefile{toc}{\contentsline {subsection}{\numberline {1.3}Cosine similarity}{3}}
\newlabel{eq1}{{1.3}{4}}
\@writefile{toc}{\contentsline {section}{\numberline {2}Model Result}{4}}
\@writefile{toc}{\contentsline {subsection}{\numberline {2.1}Topic Difference}{4}}
\newlabel{eq1}{{2.1}{4}}
\@writefile{toc}{\contentsline {subsection}{\numberline {2.2}Coauthor Network Path Length}{4}}
\newlabel{eq1}{{2.2}{4}}
\bibcite{ref1}{1}
\@writefile{toc}{\contentsline {subsection}{\numberline {2.3}Similarity to Basic Model}{5}}
\newlabel{eq1}{{2.3}{5}}
\@writefile{lot}{\contentsline {table}{\numberline {1}{\ignorespaces $k_{1} = 1$, $k_{2} = 1$, Recommendation Number = 15}}{5}}
\newlabel{RLCN}{{1}{5}}
\@writefile{lot}{\contentsline {table}{\numberline {2}{\ignorespaces $k_{1} = 1$, $k_{2} = 0.5$, Recommendation Number = 15}}{5}}
\newlabel{RLCN}{{2}{5}}
\@writefile{lot}{\contentsline {table}{\numberline {3}{\ignorespaces $k_{1} = 1$, $k_{2} = 0.25$, Recommendation Number = 15}}{5}}
\newlabel{RLCN}{{3}{5}}
