\relax 
\providecommand\hyper@newdestlabel[2]{}
\providecommand\HyperFirstAtBeginDocument{\AtBeginDocument}
\HyperFirstAtBeginDocument{\ifx\hyper@anchor\@undefined
\global\let\oldcontentsline\contentsline
\gdef\contentsline#1#2#3#4{\oldcontentsline{#1}{#2}{#3}}
\global\let\oldnewlabel\newlabel
\gdef\newlabel#1#2{\newlabelxx{#1}#2}
\gdef\newlabelxx#1#2#3#4#5#6{\oldnewlabel{#1}{{#2}{#3}}}
\AtEndDocument{\ifx\hyper@anchor\@undefined
\let\contentsline\oldcontentsline
\let\newlabel\oldnewlabel
\fi}
\fi}
\global\let\hyper@last\relax 
\gdef\HyperFirstAtBeginDocument#1{#1}
\providecommand\HyField@AuxAddToFields[1]{}
\providecommand\HyField@AuxAddToCoFields[2]{}
\citation{vivo}
\citation{rns14-4}
\citation{wiki14-5}
\citation{malik13-26}
\citation{borner10-6}
\@writefile{toc}{\contentsline {section}{\numberline {I}Introduction}{1}{section.1}}
\citation{esip14-14}
\citation{huang08-15,constructor03-16}
\citation{constructor03-16}
\citation{malik12-27}
\citation{cinergi13-21}
\citation{narock12-28}
\citation{narock12-29}
\citation{dod03-18}
\citation{wils05-19}
\citation{times14-30}
\@writefile{toc}{\contentsline {section}{\numberline {II}Related Work}{2}{section.2}}
\newlabel{sec2}{{II}{2}{Related Work}{section.2}{}}
\@writefile{toc}{\contentsline {section}{\numberline {III}Collecting Social Interaction Data}{3}{section.3}}
\newlabel{sec3}{{III}{3}{Collecting Social Interaction Data}{section.3}{}}
\@writefile{toc}{\contentsline {section}{\numberline {IV}Building Researcher Profiles}{3}{section.4}}
\newlabel{sec4}{{IV}{3}{Building Researcher Profiles}{section.4}{}}
\@writefile{toc}{\contentsline {subsection}{\numberline {\unhbox \voidb@x \hbox {IV-A}}Profile Creation}{3}{subsection.4.1}}
\citation{}
\@writefile{lot}{\contentsline {table}{\numberline {I}{\ignorespaces Quality of a Data Source}}{4}{table.1}}
\newlabel{tab1}{{I}{4}{Quality of a Data Source}{table.1}{}}
\@writefile{lot}{\contentsline {table}{\numberline {II}{\ignorespaces Node Degrees}}{4}{table.2}}
\newlabel{tab2}{{II}{4}{Node Degrees}{table.2}{}}
\@writefile{toc}{\contentsline {section}{\numberline {V}Recommendation Service}{4}{section.5}}
\newlabel{sec5}{{V}{4}{Recommendation Service}{section.5}{}}
\@writefile{toc}{\contentsline {subsection}{\numberline {\unhbox \voidb@x \hbox {V-A}}Basic User Profile Construction}{4}{subsection.5.1}}
\@writefile{toc}{\contentsline {subsection}{\numberline {\unhbox \voidb@x \hbox {V-B}}Serendipitous Profile for user $u$}{5}{subsection.5.2}}
\@writefile{toc}{\contentsline {section}{\numberline {VI}Experiments}{5}{section.6}}
\newlabel{sec6}{{VI}{5}{Experiments}{section.6}{}}
\@writefile{toc}{\contentsline {subsection}{\numberline {\unhbox \voidb@x \hbox {VI-A}}Evaluation}{5}{subsection.6.1}}
\@writefile{toc}{\contentsline {subsection}{\numberline {\unhbox \voidb@x \hbox {VI-B}}Results}{6}{subsection.6.2}}
\@writefile{toc}{\contentsline {subsubsection}{\numberline {\unhbox \voidb@x \hbox {VI-B}1}Evaluation of serendipitous recommendation under different similarity measures}{6}{subsubsection.6.2.1}}
\newlabel{fg:0}{{\unhbox \voidb@x \hbox {VI-B}1}{6}{Evaluation of serendipitous recommendation under different similarity measures}{table.3}{}}
\@writefile{lof}{\contentsline {figure}{\numberline {1}{\ignorespaces Evaluation of serendipitous recommendation under different similarity measures}}{6}{figure.1}}
\newlabel{tab3}{{\unhbox \voidb@x \hbox {VI-B}1}{6}{Evaluation of serendipitous recommendation under different similarity measures}{subsubsection.6.2.1}{}}
\@writefile{lot}{\contentsline {table}{\numberline {III}{\ignorespaces $k_{1} = 1$, $k_{2} = 1$, Recommendation Number = 15}}{6}{table.3}}
\newlabel{RLCN}{{III}{6}{$k_{1} = 1$, $k_{2} = 1$, Recommendation Number = 15}{table.3}{}}
\@writefile{toc}{\contentsline {subsubsection}{\numberline {\unhbox \voidb@x \hbox {VI-B}2}Length of Recommendation List}{6}{subsubsection.6.2.2}}
\@writefile{toc}{\contentsline {subsubsection}{\numberline {\unhbox \voidb@x \hbox {VI-B}3}Influence of $k_1$ and $k_2$}{6}{subsubsection.6.2.3}}
\bibcite{vivo}{1}
\bibcite{pubmed}{2}
\newlabel{fg:1}{{\unhbox \voidb@x \hbox {VI-B}2}{7}{Length of Recommendation List}{subsubsection.6.2.2}{}}
\@writefile{lof}{\contentsline {figure}{\numberline {2}{\ignorespaces Impact of Length of Recommendation List}}{7}{figure.2}}
\newlabel{fg:2}{{\unhbox \voidb@x \hbox {VI-B}3}{7}{Influence of $k_1$ and $k_2$}{subsubsection.6.2.3}{}}
\@writefile{lof}{\contentsline {figure}{\numberline {3}{\ignorespaces Influence of $k_1$}}{7}{figure.3}}
\newlabel{fg:4}{{\unhbox \voidb@x \hbox {VI-B}3}{7}{Influence of $k_1$ and $k_2$}{figure.3}{}}
\@writefile{lof}{\contentsline {figure}{\numberline {4}{\ignorespaces Influence of $k_2$}}{7}{figure.4}}
\newlabel{fg:4}{{\unhbox \voidb@x \hbox {VI-B}4}{7}{Real-time Recommendation}{subsubsection.6.2.4}{}}
\@writefile{lof}{\contentsline {figure}{\numberline {5}{\ignorespaces Runtime performance}}{7}{figure.5}}
\@writefile{toc}{\contentsline {subsubsection}{\numberline {\unhbox \voidb@x \hbox {VI-B}4}Real-time Recommendation}{7}{subsubsection.6.2.4}}
\@writefile{toc}{\contentsline {section}{\numberline {VII}Conclusion}{7}{section.7}}
\newlabel{sec7}{{VII}{7}{Conclusion}{section.7}{}}
\@writefile{toc}{\contentsline {section}{\numberline {VIII}Acknowledgements}{7}{section.8}}
\newlabel{sec8}{{VIII}{7}{Acknowledgements}{section.8}{}}
\bibcite{rns14-4}{3}
\bibcite{wiki14-5}{4}
\bibcite{borner10-6}{5}
\bibcite{sugi11-12}{6}
\bibcite{esip14-14}{7}
\bibcite{huang08-15}{8}
\bibcite{constructor03-16}{9}
\bibcite{dod03-18}{10}
\bibcite{wils05-19}{11}
\bibcite{thib07-20}{12}
\bibcite{cinergi13-21}{13}
\bibcite{whaling13-23}{14}
\bibcite{malik13-26}{15}
\bibcite{malik12-27}{16}
\bibcite{narock12-28}{17}
\bibcite{narock12-29}{18}
\bibcite{times14-30}{19}
\@writefile{toc}{\contentsline {section}{References}{8}{section*.1}}
