\relax 
\providecommand\hyper@newdestlabel[2]{}
\providecommand\HyperFirstAtBeginDocument{\AtBeginDocument}
\HyperFirstAtBeginDocument{\ifx\hyper@anchor\@undefined
\global\let\oldcontentsline\contentsline
\gdef\contentsline#1#2#3#4{\oldcontentsline{#1}{#2}{#3}}
\global\let\oldnewlabel\newlabel
\gdef\newlabel#1#2{\newlabelxx{#1}#2}
\gdef\newlabelxx#1#2#3#4#5#6{\oldnewlabel{#1}{{#2}{#3}}}
\AtEndDocument{\ifx\hyper@anchor\@undefined
\let\contentsline\oldcontentsline
\let\newlabel\oldnewlabel
\fi}
\fi}
\global\let\hyper@last\relax 
\gdef\HyperFirstAtBeginDocument#1{#1}
\providecommand\HyField@AuxAddToFields[1]{}
\providecommand\HyField@AuxAddToCoFields[2]{}
\citation{}
\citation{}
\citation{}
\citation{}
\@writefile{toc}{\contentsline {section}{\numberline {I}Introduction}{1}{section.1}}
\citation{}
\citation{}
\citation{}
\citation{}
\citation{}
\citation{}
\citation{}
\@writefile{toc}{\contentsline {section}{\numberline {II}Related Work}{2}{section.2}}
\newlabel{sec2}{{II}{2}{Related Work}{section.2}{}}
\@writefile{toc}{\contentsline {section}{\numberline {III}Collecting Social Interaction Data}{2}{section.3}}
\@writefile{toc}{\contentsline {section}{\numberline {IV}Building Researcher Profiles}{3}{section.4}}
\newlabel{sec3}{{IV}{3}{Building Researcher Profiles}{section.4}{}}
\@writefile{toc}{\contentsline {subsection}{\numberline {\unhbox \voidb@x \hbox {IV-A}}Profile Creation}{3}{subsection.4.1}}
\@writefile{toc}{\contentsline {subsubsection}{\numberline {\unhbox \voidb@x \hbox {IV-A}1}AGU}{3}{subsubsection.4.1.1}}
\@writefile{toc}{\contentsline {subsubsection}{\numberline {\unhbox \voidb@x \hbox {IV-A}2}Microsoft Academic}{3}{subsubsection.4.1.2}}
\@writefile{toc}{\contentsline {subsubsection}{\numberline {\unhbox \voidb@x \hbox {IV-A}3}Science Direct}{3}{subsubsection.4.1.3}}
\@writefile{toc}{\contentsline {subsubsection}{\numberline {\unhbox \voidb@x \hbox {IV-A}4}PubMed}{3}{subsubsection.4.1.4}}
\@writefile{toc}{\contentsline {subsubsection}{\numberline {\unhbox \voidb@x \hbox {IV-A}5}NSF}{3}{subsubsection.4.1.5}}
\@writefile{toc}{\contentsline {subsubsection}{\numberline {\unhbox \voidb@x \hbox {IV-A}6}ESIP}{3}{subsubsection.4.1.6}}
\@writefile{lot}{\contentsline {table}{\numberline {II}{\ignorespaces Node Degrees}}{3}{table.2}}
\citation{}
\@writefile{lot}{\contentsline {table}{\numberline {I}{\ignorespaces Duplicate percentages}}{4}{table.1}}
\@writefile{toc}{\contentsline {section}{\numberline {V}Recommendation Service}{4}{section.5}}
\@writefile{toc}{\contentsline {subsection}{\numberline {\unhbox \voidb@x \hbox {V-A}}Basic User Profile Construction}{4}{subsection.5.1}}
\@writefile{toc}{\contentsline {subsection}{\numberline {\unhbox \voidb@x \hbox {V-B}}Serendipitous Profile for user $u$}{4}{subsection.5.2}}
\@writefile{toc}{\contentsline {subsubsection}{\numberline {\unhbox \voidb@x \hbox {V-B}1}Cosine similarity:}{5}{subsubsection.5.2.1}}
\@writefile{toc}{\contentsline {section}{\numberline {VI}Experiments}{5}{section.6}}
\newlabel{sec4}{{VI}{5}{Experiments}{section.6}{}}
\@writefile{toc}{\contentsline {subsection}{\numberline {\unhbox \voidb@x \hbox {VI-A}}Topic Difference}{5}{subsection.6.1}}
\@writefile{toc}{\contentsline {subsection}{\numberline {\unhbox \voidb@x \hbox {VI-B}}Co-author Network Path Length}{5}{subsection.6.2}}
\@writefile{toc}{\contentsline {subsection}{\numberline {\unhbox \voidb@x \hbox {VI-C}}Similarity to Basic Model}{5}{subsection.6.3}}
\@writefile{lot}{\contentsline {table}{\numberline {III}{\ignorespaces $k_{1} = 1$, $k_{2} = 1$, Recommendation Number = 15}}{5}{table.3}}
\newlabel{RLCN}{{III}{5}{$k_{1} = 1$, $k_{2} = 1$, Recommendation Number = 15}{table.3}{}}
\@writefile{lot}{\contentsline {table}{\numberline {IV}{\ignorespaces $k_{1} = 1$, $k_{2} = 0.5$, Recommendation Number = 15}}{5}{table.4}}
\newlabel{RLCN}{{IV}{5}{$k_{1} = 1$, $k_{2} = 0.5$, Recommendation Number = 15}{table.4}{}}
\@writefile{lot}{\contentsline {table}{\numberline {V}{\ignorespaces $k_{1} = 1$, $k_{2} = 0.25$, Recommendation Number = 15}}{5}{table.5}}
\newlabel{RLCN}{{V}{5}{$k_{1} = 1$, $k_{2} = 0.25$, Recommendation Number = 15}{table.5}{}}
\@writefile{toc}{\contentsline {section}{\numberline {VII}Conclusion}{5}{section.7}}
\bibcite{Fosterpresentation}{1}
\bibcite{dblp}{2}
\bibcite{vivo}{3}
\bibcite{dblife}{4}
\bibcite{lattes}{5}
\bibcite{orcid}{6}
\bibcite{repec}{7}
\bibcite{arxiv}{8}
\bibcite{pubmed}{9}
\newlabel{sec5}{{VII}{6}{Conclusion}{section.7}{}}
\@writefile{toc}{\contentsline {section}{\numberline {VIII}Acknowledgements}{6}{section.8}}
\newlabel{sec6}{{VIII}{6}{Acknowledgements}{section.8}{}}
\@writefile{toc}{\contentsline {section}{References}{6}{section*.1}}
