\relax 
\providecommand\hyper@newdestlabel[2]{}
\providecommand\HyperFirstAtBeginDocument{\AtBeginDocument}
\HyperFirstAtBeginDocument{\ifx\hyper@anchor\@undefined
\global\let\oldcontentsline\contentsline
\gdef\contentsline#1#2#3#4{\oldcontentsline{#1}{#2}{#3}}
\global\let\oldnewlabel\newlabel
\gdef\newlabel#1#2{\newlabelxx{#1}#2}
\gdef\newlabelxx#1#2#3#4#5#6{\oldnewlabel{#1}{{#2}{#3}}}
\AtEndDocument{\ifx\hyper@anchor\@undefined
\let\contentsline\oldcontentsline
\let\newlabel\oldnewlabel
\fi}
\fi}
\global\let\hyper@last\relax 
\gdef\HyperFirstAtBeginDocument#1{#1}
\providecommand\HyField@AuxAddToFields[1]{}
\providecommand\HyField@AuxAddToCoFields[2]{}
\@writefile{toc}{\contentsline {section}{\numberline {I}Introduction}{1}{section.1}}
\@writefile{toc}{\contentsline {section}{\numberline {II}Related Work}{1}{section.2}}
\newlabel{sec2}{{II}{1}{Related Work}{section.2}{}}
\@writefile{toc}{\contentsline {section}{\numberline {III}Faceted Search in Profiles}{1}{section.3}}
\newlabel{sec3}{{III}{1}{Faceted Search in Profiles}{section.3}{}}
\@writefile{toc}{\contentsline {section}{\numberline {IV}Lens}{1}{section.4}}
\@writefile{toc}{\contentsline {section}{\numberline {V}Experiments}{1}{section.5}}
\newlabel{sec4}{{V}{1}{Experiments}{section.5}{}}
\@writefile{toc}{\contentsline {subsection}{\numberline {\unhbox \voidb@x \hbox {V-A}}Profile Creation}{1}{subsection.5.1}}
\@writefile{toc}{\contentsline {subsubsection}{\numberline {\unhbox \voidb@x \hbox {V-A}1}AGU}{1}{subsubsection.5.1.1}}
\@writefile{toc}{\contentsline {subsubsection}{\numberline {\unhbox \voidb@x \hbox {V-A}2}Microsoft Academic}{1}{subsubsection.5.1.2}}
\@writefile{toc}{\contentsline {subsubsection}{\numberline {\unhbox \voidb@x \hbox {V-A}3}Science Direct}{1}{subsubsection.5.1.3}}
\@writefile{toc}{\contentsline {subsubsection}{\numberline {\unhbox \voidb@x \hbox {V-A}4}PubMed}{1}{subsubsection.5.1.4}}
\@writefile{toc}{\contentsline {subsubsection}{\numberline {\unhbox \voidb@x \hbox {V-A}5}NSF}{1}{subsubsection.5.1.5}}
\@writefile{toc}{\contentsline {subsubsection}{\numberline {\unhbox \voidb@x \hbox {V-A}6}ESIP}{1}{subsubsection.5.1.6}}
\bibcite{Fosterpresentation}{1}
\bibcite{dblp}{2}
\bibcite{vivo}{3}
\bibcite{dblife}{4}
\bibcite{lattes}{5}
\bibcite{orcid}{6}
\bibcite{repec}{7}
\bibcite{arxiv}{8}
\bibcite{pubmed}{9}
\@writefile{lot}{\contentsline {table}{\numberline {I}{\ignorespaces Duplicate percentages}}{2}{table.1}}
\@writefile{lot}{\contentsline {table}{\numberline {II}{\ignorespaces Node Degrees}}{2}{table.2}}
\@writefile{toc}{\contentsline {section}{\numberline {VI}Conclusion}{2}{section.6}}
\newlabel{sec5}{{VI}{2}{Conclusion}{section.6}{}}
\@writefile{toc}{\contentsline {section}{References}{2}{section*.1}}
